{
  "dna": "ecd640d97620e4f94f4c0c577bcfe9bf649c98fe",
  "name": "#10",
  "description": "This should be an NFT about a group of like-minded people launching a heist. However, they are replaced by eyes temporarily.",
  "image": "https://gateway.pinata.cloud/ipfs//Qmekhsp9QLTxFTHteCF7dWFq8oSJg6HnJPv9xsFdvvrwK7/10.png",
  "edition": 10,
  "date": 1634564616423,
  "attributes": [
    {
      "trait_type": "Background",
      "value": "Black"
    },
    {
      "trait_type": "Eyeball",
      "value": "Red"
    },
    {
      "trait_type": "Eye color",
      "value": "Yellow"
    },
    {
      "trait_type": "Iris",
      "value": "Small"
    },
    {
      "trait_type": "Shine",
      "value": "Shapes"
    },
    {
      "trait_type": "Bottom lid",
      "value": "High"
    },
    {
      "trait_type": "Top lid",
      "value": "Middle"
    }
  ],
  "compiler": "HashLips Art Engine"
}