{
  "dna": "809356bf47f0b4cc4e59ddc1d296dacd5cfc6e83",
  "name": "#15",
  "description": "This should be an NFT about a group of like-minded people launching a heist. However, they are replaced by eyes temporarily.",
  "image": "https://gateway.pinata.cloud/ipfs//Qmekhsp9QLTxFTHteCF7dWFq8oSJg6HnJPv9xsFdvvrwK7/15.png",
  "edition": 15,
  "date": 1634564617831,
  "attributes": [
    {
      "trait_type": "Background",
      "value": "Black"
    },
    {
      "trait_type": "Eyeball",
      "value": "White"
    },
    {
      "trait_type": "Eye color",
      "value": "Cyan"
    },
    {
      "trait_type": "Iris",
      "value": "Small"
    },
    {
      "trait_type": "Shine",
      "value": "Shapes"
    },
    {
      "trait_type": "Bottom lid",
      "value": "High"
    },
    {
      "trait_type": "Top lid",
      "value": "Low"
    }
  ],
  "compiler": "HashLips Art Engine"
}