{
  "dna": "56d20616f81480d0db31e0f6f8fb85d13f76c75b",
  "name": "#19",
  "description": "This should be an NFT about a group of like-minded people launching a heist. However, they are replaced by eyes temporarily.",
  "image": "https://gateway.pinata.cloud/ipfs//Qmekhsp9QLTxFTHteCF7dWFq8oSJg6HnJPv9xsFdvvrwK7/19.png",
  "edition": 19,
  "date": 1634564618950,
  "attributes": [
    {
      "trait_type": "Background",
      "value": "Black"
    },
    {
      "trait_type": "Eyeball",
      "value": "White"
    },
    {
      "trait_type": "Eye color",
      "value": "Green"
    },
    {
      "trait_type": "Iris",
      "value": "Medium"
    },
    {
      "trait_type": "Shine",
      "value": "Shapes"
    },
    {
      "trait_type": "Bottom lid",
      "value": "Middle"
    },
    {
      "trait_type": "Top lid",
      "value": "High"
    }
  ],
  "compiler": "HashLips Art Engine"
}