{
  "dna": "4437eaa2f0c5d2a0d6f5e1a28b225044216ad860",
  "name": "#20",
  "description": "This should be an NFT about a group of like-minded people launching a heist. However, they are replaced by eyes temporarily.",
  "image": "https://gateway.pinata.cloud/ipfs//Qmekhsp9QLTxFTHteCF7dWFq8oSJg6HnJPv9xsFdvvrwK7/20.png",
  "edition": 20,
  "date": 1634564619233,
  "attributes": [
    {
      "trait_type": "Background",
      "value": "Black"
    },
    {
      "trait_type": "Eyeball",
      "value": "White"
    },
    {
      "trait_type": "Eye color",
      "value": "Pink"
    },
    {
      "trait_type": "Iris",
      "value": "Small"
    },
    {
      "trait_type": "Shine",
      "value": "Shapes"
    },
    {
      "trait_type": "Bottom lid",
      "value": "Low"
    },
    {
      "trait_type": "Top lid",
      "value": "Middle"
    }
  ],
  "compiler": "HashLips Art Engine"
}