{
  "dna": "53102f97aa4809a74e155b31ca63c9ccd71e14d0",
  "name": "#23",
  "description": "This should be an NFT about a group of like-minded people launching a heist. However, they are replaced by eyes temporarily.",
  "image": "https://gateway.pinata.cloud/ipfs//Qmekhsp9QLTxFTHteCF7dWFq8oSJg6HnJPv9xsFdvvrwK7/23.png",
  "edition": 23,
  "date": 1634564620124,
  "attributes": [
    {
      "trait_type": "Background",
      "value": "Black"
    },
    {
      "trait_type": "Eyeball",
      "value": "White"
    },
    {
      "trait_type": "Eye color",
      "value": "Yellow"
    },
    {
      "trait_type": "Iris",
      "value": "Large"
    },
    {
      "trait_type": "Shine",
      "value": "Shapes"
    },
    {
      "trait_type": "Bottom lid",
      "value": "High"
    },
    {
      "trait_type": "Top lid",
      "value": "Middle"
    }
  ],
  "compiler": "HashLips Art Engine"
}