{
  "dna": "7583e54a772a91eadd57ba2e8f1c465a39b4ed52",
  "name": "#29",
  "description": "This should be an NFT about a group of like-minded people launching a heist. However, they are replaced by eyes temporarily.",
  "image": "https://gateway.pinata.cloud/ipfs//Qmekhsp9QLTxFTHteCF7dWFq8oSJg6HnJPv9xsFdvvrwK7/29.png",
  "edition": 29,
  "date": 1634564621900,
  "attributes": [
    {
      "trait_type": "Background",
      "value": "Black"
    },
    {
      "trait_type": "Eyeball",
      "value": "Red"
    },
    {
      "trait_type": "Eye color",
      "value": "Cyan"
    },
    {
      "trait_type": "Iris",
      "value": "Medium"
    },
    {
      "trait_type": "Shine",
      "value": "Shapes"
    },
    {
      "trait_type": "Bottom lid",
      "value": "High"
    },
    {
      "trait_type": "Top lid",
      "value": "Low"
    }
  ],
  "compiler": "HashLips Art Engine"
}